Datasettøving 2: Tarmflora blant mødre og barn
…
artsrikdom <- data %>% 
  gather(key = "art", value = "antall",
         -c(MotherChildPairID, MotherChild, Timepoint)) %>% 
  group_by(MotherChildPairID, MotherChild, Timepoint) %>% 
  summarise(arter = sum(antall > 0))
artsrikdom

# A tibble: 1,124 × 4
# Groups:   MotherChildPairID, MotherChild [526]
   MotherChildPairID MotherChild Timepoint arter
               <dbl> <fct>       <fct>     <int>
 1             19193 mother      Pregnancy   173
 2             19193 mother      3months     134
 3             20217 mother      3months     155
 4             20220 mother      Pregnancy   126
 5             20220 child       10days       20
 6             20220 child       3months      16
 7             20220 child       1year        55
 8             20220 child       2years       76
 9             20251 mother      Pregnancy   118
10             20251 mother      3months      93
# … with 1,114 more rows
# ℹ Use `print(n = ...)` to see more rows
…
forekomst inneholder 6 rader, som representerer hver
observasjonstidspunkt for mor og barn. Det vil si under graviditet og 3
måneder etter fødsel for mødrene, og 10 dager, 3 måneder, ett år og to
år for barna.

Plotting

# Omstrukturer datarammen slik at artene samles i en kolonne med tilhørende verdier i en egen kolonnne.
forekomst.lang <- forekomst %>% 
  gather(key = "art", value = "andel_individer",
         -c(MotherChild, Timepoint))
forekomst.lang

# A tibble: 7,644 × 4
# Groups:   MotherChild [2]
   MotherChild Timepoint art                andel_individer
   <fct>       <fct>     <chr>                        <dbl>
 1 mother      Pregnancy Methanobrevibacter         0.317  
 2 mother      3months   Methanobrevibacter         0.365  
 3 child       10days    Methanobrevibacter         0.0112 
 4 child       3months   Methanobrevibacter         0.00518
 5 child       1year     Methanobrevibacter         0.0139 
 6 child       2years    Methanobrevibacter         0.0353 
 7 mother      Pregnancy Clostridiales              0.126  
 8 mother      3months   Clostridiales              0.1    
 9 child       10days    Clostridiales              0.00562
10 child       3months   Clostridiales              0      
# … with 7,634 more rows
# ℹ Use `print(n = ...)` to see more rows
…
Normalisering

# Fjerner de 3 første kolonnene som ikke inneholder tallverdier
data.norm.tallverdier <- data[,-(1:3)]

# Normaliserer verdiene i datarammen
clr <- log2(data.norm.tallverdier + 1) - 
  apply(log2(data.norm.tallverdier + 1), 1, mean)

# Legger til de 3 første kolonnene som identifiserer prøvene
data.norm <- bind_cols(data[,1:3], as_tibble(clr))
data.norm

# A tibble: 1,124 × 1,271
   MotherChild…¹ Mothe…² Timep…³ Metha…⁴ Clost…⁵ Diali…⁶ Rumin…⁷ Rumin…⁸ Faeca…⁹
           <dbl> <fct>   <fct>     <dbl>   <dbl>   <dbl>   <dbl>   <dbl>   <dbl>
 1         23254 mother  Pregna…   5.19   -0.454  -0.454   4.90    4.79    4.45 
 2         23474 mother  Pregna…   3.07    2.07   -0.255   3.74   -0.255   5.89 
 3         22303 mother  Pregna…  -0.349  -0.349   6.08    1.97    1.24    6.42 
 4         22623 mother  Pregna…   1.62   -0.379  -0.379   1.21    4.62    6.49 
 5         21858 mother  Pregna…  -0.279  -0.279  -0.279  -0.279   3.63    4.18 
 6         21514 mother  Pregna…   1.28   -0.306  -0.306   0.694   4.60    5.72 
 7         22640 mother  Pregna…   1.29   -0.295  -0.295  -0.295  -0.295   5.51 
 8         22419 mother  Pregna…  -0.317  -0.317  -0.317   2.85   -0.317   0.683
 9         23107 mother  Pregna…  -0.267  -0.267  -0.267   3.54    1.73    5.57 
10         23124 mother  Pregna…  -0.256  -0.256  -0.256   0.744   2.07    6.12 
# … with 1,114 more rows, 1,262 more variables: Lachnospiraceae <dbl>,
#   Mollicutes <dbl>, Bacteroides <dbl>, Dialister.1 <dbl>,
#   Bacteroides.1 <dbl>, Ruminococcaceae.1 <dbl>, Christensenellaceae <dbl>,
#   Bacteroides.2 <dbl>, Bifidobacterium <dbl>, Mollicutes.1 <dbl>,
#   Bacteroides.3 <dbl>, Clostridiales.1 <dbl>, Erysipelotrichaceae <dbl>,
#   Mollicutes.2 <dbl>, Ruminococcaceae.2 <dbl>, Eubacterium <dbl>,
#   Blautia <dbl>, Ruminococcaceae.3 <dbl>, Rikenellaceae <dbl>, …
# ℹ Use `print(n = ...)` to see more rows, and `colnames()` to see all variable names
…
