Analyse av genuttrykk for gammastrålt gran
…
# Setter chunk options til comment = "" for å fjerne #-tegnene slik at vi får en mer estetisk rapport
knitr::opts_chunk$set(comment = "")

# Suppress summarise info. Hindre dplyr i å klage om summarise groups
options(dplyr.summarise.inform = FALSE)

d <- read_tsv("data/gene_expression_readcounts.tsv")
d

# A tibble: 66,069 × 21
   geneID        `G0-1` `G0-2` `G0-3` `G0-4` `G1-1` `G1-2` `G1-3` `G1-4` `G10-1`
   <chr>          <dbl>  <dbl>  <dbl>  <dbl>  <dbl>  <dbl>  <dbl>  <dbl>   <dbl>
 1 MA_10g0010     107    102     103   108    396   330     169    185      170 
 2 MA_10000213g…    0      0       0     0      0     0       0      0        0 
 3 MA_10000405g…    0      0       0     0      0     1       0      0        1 
 4 MA_1000049g0…   20     63      35    21     36    23      18     17       22 
 5 MA_10000516g…    0      0       0     0      0     1.00    0      2        1 
 6 MA_10001g0010    0      0       0     0      0     0       0      0        0 
 7 MA_10001015g…    3      6       2     0      1     3       0      2        1 
 8 MA_10001337g…   15.4   26.5   180.   49.3   86.2  66.6    40.1   54.4    139.
 9 MA_10001425g…   28     96      48    39     78    76      68     52       36 
10 MA_10001478g…    2      0       1     1      0     0       0      0        2 
# … with 66,059 more rows, and 11 more variables: `G10-2` <dbl>, `G10-3` <dbl>,
#   `G10-4` <dbl>, `G40-1` <dbl>, `G40-2` <dbl>, `G40-3` <dbl>, `G40-4` <dbl>,
#   `G100-1` <dbl>, `G100-2` <dbl>, `G100-3` <dbl>, `G100-4` <dbl>
…
Fra “bred form” til “lang form”

For å kunne jobbe med
datasettet må vi endre formen til datarammen fra bred til
lang.

d.lang <- d %>% 
  # velger alle kolonnene unntatt den første
  pivot_longer(cols = -1,
               names_to = "plante",
               values_to = "genuttrykk")
d.lang

# A tibble: 1,321,380 × 3
   geneID     plante genuttrykk
   <chr>      <chr>       <dbl>
 1 MA_10g0010 G0-1          107
 2 MA_10g0010 G0-2          102
 3 MA_10g0010 G0-3          103
 4 MA_10g0010 G0-4          108
 5 MA_10g0010 G1-1          396
 6 MA_10g0010 G1-2          330
 7 MA_10g0010 G1-3          169
 8 MA_10g0010 G1-4          185
 9 MA_10g0010 G10-1         170
10 MA_10g0010 G10-2          95
# … with 1,321,370 more rows
…
  separate(col = plante,
           into = c("dose", "rep"),
           sep = "-",
           remove = FALSE) %>% 
  # lager en ny kolonne som inneholder dosemengde
  separate(col = dose,
           # ignorer kolonnen som vil inneholde bokstaven G
           into = c(NA, "mGy"),
           # del på etter første posisjon
           sep = 1,
           # konverterer til integer
           convert = TRUE)
d.lang.sep

# A tibble: 1,321,380 × 5
   geneID     plante   mGy rep   genuttrykk
   <chr>      <chr>  <int> <chr>      <dbl>
 1 MA_10g0010 G0-1       0 1            107
 2 MA_10g0010 G0-2       0 2            102
 3 MA_10g0010 G0-3       0 3            103
 4 MA_10g0010 G0-4       0 4            108
 5 MA_10g0010 G1-1       1 1            396
 6 MA_10g0010 G1-2       1 2            330
 7 MA_10g0010 G1-3       1 3            169
 8 MA_10g0010 G1-4       1 4            185
 9 MA_10g0010 G10-1     10 1            170
10 MA_10g0010 G10-2     10 2             95
# … with 1,321,370 more rows
…
  # velger alle kolonnene unntatt den første
  pivot_longer(cols = -1,
               names_to = "plante",
               values_to = "genuttrykk") %>% 
  separate(col = plante,
           into = c("dose", "rep"),
           sep = "-",
           remove = FALSE) %>% 
  separate(col = dose,
           into = c(NA, "mGy"),
           sep = 1,
           convert = TRUE)
tpm.lang

# A tibble: 1,321,380 × 5
   geneID     plante   mGy rep   genuttrykk
   <chr>      <chr>  <int> <chr>      <dbl>
 1 MA_10g0010 G0-1       0 1           1.63
 2 MA_10g0010 G0-2       0 2           2.11
 3 MA_10g0010 G0-3       0 3           1.95
 4 MA_10g0010 G0-4       0 4           2.12
 5 MA_10g0010 G1-1       1 1           6.20
 6 MA_10g0010 G1-2       1 2           5.25
 7 MA_10g0010 G1-3       1 3           3.18
 8 MA_10g0010 G1-4       1 4           3.20
 9 MA_10g0010 G10-1     10 1           2.61
10 MA_10g0010 G10-2     10 2           1.80
# … with 1,321,370 more rows

Hvilket gen har høyest målt genuttrykk i tpm?

tpm.lang %>% 
  arrange(desc(genuttrykk))

# A tibble: 1,321,380 × 5
   geneID           plante   mGy rep   genuttrykk
   <chr>            <chr>  <int> <chr>      <dbl>
 1 MA_183668g0010   G10-4     10 4         34598.
 2 MA_183668g0010   G100-4   100 4         34307.
 3 MA_183668g0010   G100-3   100 3         23262.
 4 MA_183668g0010   G100-2   100 2         22360.
 5 MA_10103038g0010 G0-1       0 1         19560.
 6 MA_10103038g0010 G1-3       1 3         19229.
 7 MA_183668g0010   G40-3     40 3         18599.
 8 MA_183668g0010   G0-3       0 3         18412.
 9 MA_183668g0010   G10-2     10 2         17433.
10 MA_183668g0010   G1-2       1 2         17045.
# … with 1,321,370 more rows
…
Siden genuttrykk
varierer så mye bør vi bruke logaritmer til å sammenlikne dem. For å ta
med nullverdiene i plottet bruker vi et vanlig “tjuvtriks” der vi legger
til et lite tall på alle observasjonene.

# Legger til en ny kolonne som er tierlogaritmen til genuttrykk pluss en
tpm.lang$log10tpm <- (log10(tpm.lang$genuttrykk + 1))
tpm.lang

# A tibble: 1,321,380 × 6
   geneID     plante   mGy rep   genuttrykk log10tpm
   <chr>      <chr>  <int> <chr>      <dbl>    <dbl>
 1 MA_10g0010 G0-1       0 1           1.63    0.420
 2 MA_10g0010 G0-2       0 2           2.11    0.493
 3 MA_10g0010 G0-3       0 3           1.95    0.470
 4 MA_10g0010 G0-4       0 4           2.12    0.494
 5 MA_10g0010 G1-1       1 1           6.20    0.857
 6 MA_10g0010 G1-2       1 2           5.25    0.796
 7 MA_10g0010 G1-3       1 3           3.18    0.621
 8 MA_10g0010 G1-4       1 4           3.20    0.623
 9 MA_10g0010 G10-1     10 1           2.61    0.558
10 MA_10g0010 G10-2     10 2           1.80    0.448
# … with 1,321,370 more rows
…
5 Kvalitetskontroll av data

tpm.orig <- tpm
tpm.lang.orig <- tpm.lang

# Gjennomsnitt
gjsn.log10tpm <- tpm.lang %>% 
  group_by(geneID) %>% 
  # Gjennomsnitt over alle doser og replikater for et gitt gen
  summarise(gjsn = mean(log10tpm))
gjsn.log10tpm

# A tibble: 66,069 × 2
   geneID               gjsn
   <chr>               <dbl>
 1 MA_10000213g0010 0.000503
 2 MA_10000405g0010 0.000913
 3 MA_1000049g0010  0.393   
 4 MA_10000516g0010 0.0174  
 5 MA_10001015g0010 0.0382  
 6 MA_10001337g0010 0.539   
 7 MA_10001425g0010 0.938   
 8 MA_10001478g0010 0.00783 
 9 MA_10001558g0010 0.716   
10 MA_10001g0010    0       
# … with 66,059 more rows

# Varians
var.log10tpm <- tpm.lang %>% 
  group_by(geneID, mGy) %>% 
  # Gjennomsnitt over de fire replikatene for en gitt kombinasjon av gen og dose
  summarise(gjsn = mean(log10tpm)) %>% 
  # Varians i gjennomsnitt over de fem dosene
  summarise(varians = var(gjsn))
var.log10tpm

# A tibble: 66,069 × 2
   geneID              varians
   <chr>                 <dbl>
 1 MA_10000213g0010 0.00000126
 2 MA_10000405g0010 0.00000156
 3 MA_1000049g0010  0.00891   
 4 MA_10000516g0010 0.000208  
 5 MA_10001015g0010 0.000459  
 6 MA_10001337g0010 0.0134    
 7 MA_10001425g0010 0.00251   
 8 MA_10001478g0010 0.0000545 
 9 MA_10001558g0010 0.00528   
10 MA_10001g0010    0         
# … with 66,059 more rows

# Setter sammen de kolonnene i de ulike tabellene utifra deres felles genID 
gen.stats <- inner_join(gjsn.log10tpm, var.log10tpm, by = "geneID")
gen.stats

# A tibble: 66,069 × 3
   geneID               gjsn    varians
   <chr>               <dbl>      <dbl>
 1 MA_10000213g0010 0.000503 0.00000126
 2 MA_10000405g0010 0.000913 0.00000156
 3 MA_1000049g0010  0.393    0.00891   
 4 MA_10000516g0010 0.0174   0.000208  
 5 MA_10001015g0010 0.0382   0.000459  
 6 MA_10001337g0010 0.539    0.0134    
 7 MA_10001425g0010 0.938    0.00251   
 8 MA_10001478g0010 0.00783  0.0000545 
 9 MA_10001558g0010 0.716    0.00528   
10 MA_10001g0010    0        0         
# … with 66,059 more rows

# Tar først topp 90% av gener mhp totalgjennomsnittet, og deretter topp 100 mhp varians i gjennomsnitt mellom behandlinger
gen.100 <- gen.stats %>% 
  top_frac(0.9, gjsn) %>% 
  top_n(100, varians) %>% 
  arrange(desc(varians))
gen.100

# A tibble: 100 × 3
   geneID            gjsn varians
   <chr>            <dbl>   <dbl>
 1 MA_10178675g0010 0.609   0.339
 2 MA_9293g0010     1.03    0.319
 3 MA_183840g0010   0.789   0.314
 4 MA_137711g0010   1.38    0.305
 5 MA_10433269g0010 0.999   0.294
 6 MA_96649g0010    0.694   0.256
 7 MA_17373g0020    0.961   0.238
 8 MA_55788g0010    0.566   0.232
 9 MA_462957g0010   1.02    0.214
10 MA_111482g0010   0.450   0.210
# … with 90 more rows
…
